Name,BirthDate,Team,Division,BodyweightKg,WeightClassKg,Squat1Kg,Squat2Kg,Squat3Kg,Best3SquatKg,Bench1Kg,Bench2Kg,Bench3Kg,Best3BenchKg,Deadlift1Kg,Deadlift2Kg,Deadlift3Kg,Best3DeadliftKg,TotalKg,Event,Place,Equipment,Sex
Jaz Jameson-Allen,,UNAT,FR-Jr,52.9,57,70,75,80,80,40,45,47.5,47.5,95,-105,110,110,237.5,SBD,2,Raw,F
Rebecca Bradshaw,,NU,FR-Jr,65.4,72,90,95,100,100,47.5,50,52.5,52.5,105,112.5,120,120,272.5,SBD,2,Raw,F
Charlotte Clarke,,,FR-Jr,44.8,47,92.5,100,102.5,102.5,40,45,-50,45,110,120,127.5,127.5,275,SBD,1,Raw,F
Niamh Howarth,,UNAT,FR-Jr,70.6,72,-105,-105,105,105,67.5,70,72.5,72.5,115,120,-125,120,297.5,SBD,1,Raw,F
Dionne Taylor,,UNAT,FR-Jr,58.4,63,107.5,115,120,120,50,52.5,55,55,120,127.5,132.5,132.5,307.5,SBD,2,Raw,F
Eleanor Chapman,,WORK,FR-Jr,82.6,84,105,115,-117.5,115,50,55,-60,55,120,130,-135,130,300,SBD,2,Raw,F
Jenny Turnbull,,STPC,FR-Sj,83.2,84,100,111,115,115,50,55,-57.5,55,120,130.5,-132.5,130.5,300.5,SBD,1,Raw,F
Rosie Turnbull,,STPC,FR-Jr,77.8,84,127.5,135,142.5,142.5,60,65,-70,65,135,145,155,155,362.5,SBD,1,Raw,F
Lauren Reed,,TUB,FR-Jr,63,63,107.5,115,120,120,57.5,60,62.5,62.5,137.5,147.5,-155,147.5,330,SBD,1,Raw,F
Stacie Jones,,UNAT,FR-Jr,57,57,130,137.5,141,141,65,72.5,-75,72.5,140,150,-155,150,363.5,SBD,1,Raw,F
Amelia O'Donnell,,LRSS,FR-Sj,96.8,84+,130,140,145,145,55,60,62.5,62.5,140,150,160,160,367.5,SBD,1,Raw,F
Kallym Bell,,UNAT,MR-Sj,73.8,74,115,130,140,140,75,85,-95,85,115,130,150,150,375,SBD,5,Raw,M
Joseph Sedda,,UNAT,MR-Jr,80.2,83,140,147.5,-160,147.5,-95,102.5,110,110,140,152.5,162.5,162.5,420,SBD,11,Raw,M
Adam Morkot,,GP,MR-Sj,69.6,74,140,150,157.5,157.5,90,97.5,-102.5,97.5,140,155,162.5,162.5,417.5,SBD,4,Raw,M
Elliott Smith,,STPC,MR-Jr,71.6,74,120,127.5,135,135,90,100,107.5,107.5,160,170,-180,170,412.5,SBD,3,Raw,M
Declan Meecham,,UNAT,MR-Jr,58.2,59,150,157.5,-160,157.5,80,90,92.5,92.5,165,172.5,180,180,430,SBD,1,Raw,M
Tulio Xavier,,NU,MR-Jr,70.8,74,132.5,140,145,145,100,107.5,-112.5,107.5,165,172.5,177.5,177.5,430,SBD,2,Raw,M
Jake Walker,,LUP&W,MR-Jr,64.6,66,125,-135,135,135,90,95,100,100,165,175,180,180,415,SBD,2,Raw,M
Chris Marshall,,UNAT,MR-Jr,58,59,125,132.5,-140,132.5,90,95,97.5,97.5,170,180,190,190,420,SBD,2,Raw,M
George Camsell,,STPC,MR-Sj,68,74,160,170,-177.5,170,100,105,110,110,-170,185,200,200,480,SBD,2,Raw,M
Connor Leadbeater,1998-07-21,UNAT,MR-Jr,65.4,66,180,190,-198,190,126,130,132.5,132.5,182.5,-195,-195,182.5,505,SBD,1,Raw,M
Brandon Sewell,,UNAT,MR-Jr,79,83,190,200,205,205,105,110,115,115,190,205,212.5,212.5,532.5,SBD,5,Raw,M
Tom Lee,,UNAT,MR-Sj,72.6,74,-160,160,170,170,110,117.5,122.5,122.5,215,225,235,235,527.5,SBD,1,Raw,M
Ade Omisakin,,UNAT,MR-Jr,71,74,170,180,190,190,105,110,117.5,117.5,210,227.5,240,240,547.5,SBD,1,Raw,M
Callum Shooter,,UNAT,MR-Jr,81.8,83,160,-170,-170,160,105,110,-112.5,110,200,-230,-230,200,470,SBD,10,Raw,M
Alex Whinnie,,UNAT,MR-Sj,81.8,83,142.5,152.5,-160,152.5,110,115,117.5,117.5,120,130,140,140,410,SBD,2,Raw,M
Peter Hawthorn,,UNAT,MR-Sj,80,83,145,152.5,-160,152.5,92.5,-97.5,100,100,160,165,170,170,422.5,SBD,1,Raw,M
Oliver Henderson,,STPC,MR-Jr,80,83,-135,135,140,140,70,-77.5,-77.5,70,160,170,-175,170,380,SBD,12,Raw,M
Ben Milne,,P&W,MR-Sj,72.4,74,140,147.5,155,155,90,100,105,105,160,172.5,180,180,440,SBD,3,Raw,M
William Moncur-Brown,,NOU,MR-Jr,90.2,93,155,162.5,170,170,112.5,120,125,125,185,195,205,205,500,SBD,9,Raw,M
Daniel Bull,,UNAT,MR-Jr,81.2,83,150,162.5,170,170,-100,105,112.5,112.5,200,207.5,212.5,212.5,495,SBD,8,Raw,M
Joseph Shipp,,UNAT,MR-Jr,81.4,83,150,157.5,165,165,95,100,-105,100,200,210,220,220,485,SBD,9,Raw,M
Jack Beazley,,UNAT,MR-Jr,79.6,83,185,192.5,-200,192.5,115,-120,-120,115,205,212.5,220,220,527.5,SBD,6,Raw,M
Jack I'Anson,,NU,MR-Jr,82.4,83,202.5,212.5,,212.5,107.5,112.5,-117.5,112.5,205,212.5,-215,212.5,537.5,SBD,4,Raw,M
Christian Vieira,,NU,MR-Jr,81.4,83,175,182.5,,182.5,115,120,-125,120,205,215,-222.5,215,517.5,SBD,7,Raw,M
Matthew Cawkill,,UNAT,MR-Jr,81.4,83,210,225,232.5,232.5,110,117.5,122.5,122.5,215,225,235,235,590,SBD,1,Raw,M
Nathan Morgan,,UNAT,MR-Jr,78.8,83,180,190,195,195,110,115,-120,115,220,230,-240,230,540,SBD,3,Raw,M
Chris Clarke,,NU,MR-Jr,81.2,83,175,185,192.5,192.5,110,-115,115,115,220,232.5,242.5,242.5,550,SBD,2,Raw,M
Husayn Desai,,UNAT,MR-Jr,91.8,93,155,180,-187.5,180,105,120,-125,120,210,-250,-250,210,510,SBD,8,Raw,M
Brandon Barr,,NOU,MR-Jr,92,93,180,190,195,195,105,110,-112.5,110,200,210,215,215,520,SBD,7,Raw,M
Michael Keegan,,GP,MR-Jr,110.8,120,197.5,207.5,212.5,212.5,112.5,120,-130,120,207.5,217.5,-225,217.5,550,SBD,3,Raw,M
Joseph Eaton,,UNAT,MR-Jr,86,93,190,200,205,205,115,120,-122.5,120,210,225,230,230,555,SBD,5,Raw,M
Connor O'Donnell,,LRSS,MR-Sj,113.6,120,170,180,190,190,110,120,127.5,127.5,200,217.5,232.5,232.5,550,SBD,1,Raw,M
Joe Goodlad,,UNAT,MR-Jr,90.6,93,165,172.5,180,180,105,110,115,115,215,225,235,235,530,SBD,6,Raw,M
Victor Macauley,,UNAT,MR-Jr,91.8,93,220,230,-235,230,-132.5,137.5,142.5,142.5,250,-260,260,260,632.5,SBD,3,Raw,M
Jonathan Richard Liddle-Johnson,,UNAT,MR-Jr,110.8,120,210,225,235,235,120,135,145,145,240,255,260,260,640,SBD,2,Raw,M
Zak Ezway,,UNAT,MR-Jr,92,93,160,-180,195,195,110,117.5,122.5,122.5,220,240,-270,240,557.5,SBD,4,Raw,M
Chris Onuoha,,UNAT,MR-Jr,90.2,93,210,220,230,230,127.5,135,-140,135,-265,280,285,285,650,SBD,2,Raw,M
Owen Marron,,STPC,MR-Jr,90.4,93,227.5,240,,240,140,145,-150,145,260,281,-290,281,666,SBD,1,Raw,M
Robert Szilagyi,,UNAT,MR-Jr,108.6,120,200,-220,230,230,150,-155,-155,150,290,-310,-310,290,670,SBD,1,Raw,M
