Event,Sex,Name,State,BodyweightKg,WeightClassKg,Division,Best3SquatKg,Best3BenchKg,Best3DeadliftKg,TotalKg,Equipment,Place
SBD,M,D. Newman,NF,90,90,Juniors,190.0,85.0,205.0,480.0,Single-ply,1
SBD,M,A Parsons,NF,90,90,Juniors,120.0,100.0,112.5,332.5,Single-ply,2
SBD,M,Paul Mercer,NF,82.5,82.5,Juniors,157.5,110.0,185.0,452.5,Single-ply,1
SBD,M,M. Sheppard,NF,75,75,Juniors,165.0,95.0,200.0,460.0,Single-ply,2
SBD,M,Barry Benoit,NF,75,75,Juniors,182.5,110.0,235.0,527.5,Single-ply,1
SBD,M,R. Cooper,NF,100,100,Juniors,182.5,90.0,227.5,500.0,Single-ply,1
B,M,Barry Benoit,NF,75,75,Juniors,,110.0,,110.0,Single-ply,1
